^D:\PROGRAMS\STORAGE\KONSTRUIROVANIE-PO-1-LABA\LAB2\BRIDGE\DEBUG\BRIDGE.OBJ|D:\PROGRAMS\STORAGE\KONSTRUIROVANIE-PO-1-LABA\LAB2\BRIDGE\DEBUG\STDAFX.OBJ
D:\PROGRAMS\STORAGE\KONSTRUIROVANIE-PO-1-LABA\LAB2\ADAPTER\DEBUG\BRIDGE.ILK
D:\PROGRAMS\STORAGE\KONSTRUIROVANIE-PO-1-LABA\LAB2\ADAPTER\DEBUG\BRIDGE.EXE
D:\PROGRAMS\STORAGE\KONSTRUIROVANIE-PO-1-LABA\LAB2\ADAPTER\DEBUG\BRIDGE.PDB
